…
output = vector("list", 5000)

for (i in 1:5000) {
  output[[i]] = p3_sim(30)
}

sim_results = bind_rows(output)
sim_results
```

    ## # A tibble: 5,000 × 2
    ##     mu_hat p_value
    ##      <dbl>   <dbl>
    ##  1  0.964    0.168
    ##  2  0.907    0.305
    ##  3  1.27     0.172
    ##  4 -0.648    0.367
    ##  5  0.455    0.558
    ##  6  0.572    0.568
    ##  7  0.0166   0.985
    ##  8  0.723    0.407
    ##  9 -0.374    0.750
    ## 10  0.310    0.710
    ## # … with 4,990 more rows
